while True:
                print("\tВыберите операцию:\n",
                "\t\t0 - назад;\n",
                "\t\t1 - сложение;\n",
                "\t\t2 - вычитание;\n",
                "\t\t3 - умножение;\n",
                "\t\t4 - деление;\n",
                "\t\t5 - деление нацело;\n",
                "\t\t6 - нахождение остатка от деления;\n",
                "\t\t7 - степень;\n",
                "\t\t8 - квадратный корень;\n",
                "\t\t9 - гипотенуза;\n",
                "\t\t10 - логарифм;\n",
                "\t\t11 - натуральный логарифм;\n",
                "\t\t12 - площадь параллелепипеда;\n",
                "\t\t13 - периметр параллелепипеда;")
                try:
                    j = int(input("\t\t"))
                    lamPL = lambda a,b,c: 2*(a*b+b*c+a*c)
                    lamPE = lambda a,b,c: 4*a+4*b+4*c
                    if(j==1):
                        print("\t\tВведите a:")
                        a = float(input("\t\t"))
                        print("\t\tВведите b:")
                        b = float(input("\t\t"))
                        print(f"\t\tОтвет: {a+b}\n")
                    elif(j==2):
                        print("\t\tВведите a:")
                        a = float(input("\t\t"))
                        print("\t\tВведите b:")
                        b = float(input("\t\t"))
                        print(f"\t\tОтвет: {a-b}\n")
                    elif(j==3):
                        print("\t\tВведите a:")
                        a = float(input("\t\t"))
                        print("\t\tВведите b:")
                        b = float(input("\t\t"))
                        print(f"\t\tОтвет: {a*b}\n")
                    elif(j==4):
                        print("\t\tВведите a:")
                        a = float(input("\t\t"))
                        print("\t\tВведите b:")
                        b = float(input("\t\t"))
                        print(f"\t\tОтвет: {a/b}\n")
                    elif(j==5):
                        print("\t\tВведите a:")
                        a = float(input("\t\t"))
                        print("\t\tВведите b:")
                        b = float(input("\t\t"))
                        print(f"\t\tОтвет: {int(a//b)}\n")
                    elif(j==6):
                        print("\t\tВведите a:")
                        a = float(input("\t\t"))
                        print("\t\tВведите b:")
                        b = float(input("\t\t"))
                        print(f"\t\tОтвет: {a%b}\n")
                    elif(j==7):
                        print("\t\tВведите a:")
                        a = float(input("\t\t"))
                        print("\t\tВведите b:")
                        b = float(input("\t\t"))
                        print(f"\t\tОтвет: {a**b}\n")
                    elif(j==8):
                        print("\t\tВведите a:")
                        a = float(input("\t\t"))
                        print(f"\t\tОтвет: {math.sqrt(a)}\n")
                    elif(j==9):
                        print("\t\tВведите a:")
                        a = float(input("\t\t"))
                        print("\t\tВведите b:")
                        b = float(input("\t\t"))
                        print(f"\t\tОтвет: {math.hypot(a,b)}\n")
                    elif(j==10):
                        print("\t\tВведите a:")
                        a = float(input("\t\t"))
                        print("\t\tВведите b:")
                        b = float(input("\t\t"))
                        print(f"\t\tОтвет: {math.log(a,b)}\n")
                    elif(j==11):
                        print("\t\tВведите a:")
                        a = float(input("\t\t"))
                        print(f"\t\tОтвет: {math.log1p(a)}\n")
                    elif(j==12):
                        print("\t\tВведите a:")
                        a = float(input("\t\t"))
                        print("\t\tВведите b:")
                        b = float(input("\t\t"))
                        print("\t\tВведите c:")
                        c = float(input("\t\t"))
                        print(f"\t\tОтвет: {lamPL(a,b,c)}\n")
                    elif(j==13):
                        print("\t\tВведите a:")
                        a = float(input("\t\t"))
                        print("\t\tВведите b:")
                        b = float(input("\t\t"))
                        print("\t\tВведите c:")
                        c = float(input("\t\t"))
                        print(f"\t\tОтвет: {lamPE(a,b,c)}\n")
                    elif(j==0):
                        break
                    else:
                        print("Неверный ввод!")
                except:
                    print("Неверный ввод!")